%YAML 1.1
%TAG !u! tag:unity3d.com,2011:
--- !u!74 &7400000
AnimationClip:
  m_ObjectHideFlags: 0
  m_PrefabParentObject: {fileID: 0}
  m_PrefabInternal: {fileID: 0}
  m_Name: ProgressAnimation
  serializedVersion: 6
  m_Legacy: 0
  m_Compressed: 0
  m_UseHighQualityCurve: 1
  m_RotationCurves: []
  m_CompressedRotationCurves: []
  m_EulerCurves: []
  m_PositionCurves: []
  m_ScaleCurves: []
  m_FloatCurves: []
  m_PPtrCurves:
  - curve:
    - time: 0
      value: {fileID: 21300000, guid: b65fd648f073fcc43bca5a59d8eb0f18, type: 3}
    - time: 0.16666667
      value: {fileID: 21300000, guid: 89ab255b4703a644394a816f0fe901c9, type: 3}
    - time: 0.33333334
      value: {fileID: 21300000, guid: 1653d873c670a104b9c2d03de894f00c, type: 3}
    - time: 0.5
      value: {fileID: 21300000, guid: 213a47e5de3c55441906a0cfedd3e74d, type: 3}
    - time: 0.6666667
      value: {fileID: 21300000, guid: 30aa3a204b9b65843b8f1f92195ee2dc, type: 3}
    - time: 0.8333333
      value: {fileID: 21300000, guid: bdcbfa59892f79c4fbb647198ae6fedb, type: 3}
    - time: 1
      value: {fileID: 21300000, guid: ce4a8cfd4e8c3ac42bdc7b08bfb2df35, type: 3}
    - time: 1.1666666
      value: {fileID: 21300000, guid: 155789c01d900f640afa9715bf32bc42, type: 3}
    - time: 1.3333334
      value: {fileID: 21300000, guid: 59ff65e77b9082b4ab6b060f8be63b1d, type: 3}
    - time: 1.5
      value: {fileID: 21300000, guid: 4eac7ce2335e6064eb38e5ca7dbe4e11, type: 3}
    - time: 1.6666666
      value: {fileID: 21300000, guid: 96953f9164ae79a47a3cb4a0db3e4276, type: 3}
    attribute: m_Sprite
    path: 
    classID: 114
    script: {fileID: -765806418, guid: f5f67c52d1564df4a8936ccd202a3bd8, type: 3}
  m_SampleRate: 60
  m_WrapMode: 0
  m_Bounds:
    m_Center: {x: 0, y: 0, z: 0}
    m_Extent: {x: 0, y: 0, z: 0}
  m_ClipBindingConstant:
    genericBindings:
    - path: 0
      attribute: 2015549526
      script: {fileID: -765806418, guid: f5f67c52d1564df4a8936ccd202a3bd8, type: 3}
      classID: 114
      customType: 0
      isPPtrCurve: 1
    pptrCurveMapping:
    - {fileID: 21300000, guid: b65fd648f073fcc43bca5a59d8eb0f18, type: 3}
    - {fileID: 21300000, guid: 89ab255b4703a644394a816f0fe901c9, type: 3}
    - {fileID: 21300000, guid: 1653d873c670a104b9c2d03de894f00c, type: 3}
    - {fileID: 21300000, guid: 213a47e5de3c55441906a0cfedd3e74d, type: 3}
    - {fileID: 21300000, guid: 30aa3a204b9b65843b8f1f92195ee2dc, type: 3}
    - {fileID: 21300000, guid: bdcbfa59892f79c4fbb647198ae6fedb, type: 3}
    - {fileID: 21300000, guid: ce4a8cfd4e8c3ac42bdc7b08bfb2df35, type: 3}
    - {fileID: 21300000, guid: 155789c01d900f640afa9715bf32bc42, type: 3}
    - {fileID: 21300000, guid: 59ff65e77b9082b4ab6b060f8be63b1d, type: 3}
    - {fileID: 21300000, guid: 4eac7ce2335e6064eb38e5ca7dbe4e11, type: 3}
    - {fileID: 21300000, guid: 96953f9164ae79a47a3cb4a0db3e4276, type: 3}
  m_AnimationClipSettings:
    serializedVersion: 2
    m_AdditiveReferencePoseClip: {fileID: 0}
    m_AdditiveReferencePoseTime: 0
    m_StartTime: 0
    m_StopTime: 1.6833333
    m_OrientationOffsetY: 0
    m_Level: 0
    m_CycleOffset: 0
    m_HasAdditiveReferencePose: 0
    m_LoopTime: 1
    m_LoopBlend: 0
    m_LoopBlendOrientation: 0
    m_LoopBlendPositionY: 0
    m_LoopBlendPositionXZ: 0
    m_KeepOriginalOrientation: 0
    m_KeepOriginalPositionY: 1
    m_KeepOriginalPositionXZ: 0
    m_HeightFromFeet: 0
    m_Mirror: 0
  m_EditorCurves: []
  m_EulerEditorCurves: []
  m_HasGenericRootTransform: 0
  m_HasMotionFloatCurves: 0
  m_GenerateMotionCurves: 0
  m_Events: []
